{
	"additionalNodes": [],
	"additionalParameters": {
		"root": {
			"height": 170,
			"width": 246
		}
	},
	"inputs": [ {
		"command": "Variable",
		"name": "atlas"
	}, {
		"command": "BETS_UNIT",
		"name": "unit_to_rescue"
	}, {
		"command": "Variable",
		"name": "Map"
	} ],
	"outputs": [ {
		"name": "Map"
	} ],
	"properties": {
		"8Jfi7iR16z7Hvl4C5TAbIOO8kq8uL0r6": {
			"height": 54,
			"title": "success",
			"width": 132,
			"x": 1590,
			"y": 1120
		},
		"ABj1qKoBeRTcjS2BkRL3Vqb2PvIWrzeF": {
			"height": 54,
			"title": "failure",
			"width": 131,
			"x": 1071,
			"y": -156
		},
		"AzsxEffwlaz8hdXIqkUk0C6z7MDHGAyn": {
			"height": 94,
			"title": "store",
			"width": 502,
			"x": 1915,
			"y": 707
		},
		"Bf5Dd6gITdEqAbSs8mOIEeOmGNvQ0GMW": {
			"height": 94,
			"title": "store",
			"width": 198,
			"x": 615,
			"y": -363
		},
		"CJoVPU9JiE4MXwS8sJ0Oba3Dr5w2L5gN": {
			"height": 60,
			"title": "sequence",
			"width": 143,
			"x": 1718,
			"y": 768
		},
		"Du5Ixn0WFEmg8ba0rMNcvWeUrVy7zJrZ": {
			"height": 115,
			"title": "store",
			"width": 444,
			"x": 580,
			"y": -493
		},
		"DuwtrIPCBXh618t7rjT26nHmS7DQV2Ut": {
			"height": 54,
			"title": "failure",
			"width": 131,
			"x": 2300,
			"y": 297
		},
		"JFqKwIKPde2kZ7USP5CQROonvFIKo6SK": {
			"height": 132,
			"title": "nota_DaL_myThirdProject.ttdr_unload_to_safeArea",
			"width": 388,
			"x": 1454,
			"y": 1364
		},
		"JhKIfo1uSdA2bmknDdaBJB5bsIG9AbJK": {
			"height": 90,
			"title": "luaCondition",
			"width": 194,
			"x": 1256,
			"y": 1027
		},
		"JkacCHlzGMZNGUFdqMDi02jg0I6X7Dcf": {
			"height": 94,
			"title": "store",
			"width": 502,
			"x": 1553,
			"y": 1004
		},
		"ORwOw5OpEpaAkqI40DMDtBl0ZI8Jfwm2": {
			"height": 132,
			"title": "nota_DaL_myThirdProject.ttdr_unload_to_safeArea",
			"width": 388,
			"x": 1559,
			"y": 329
		},
		"PwYOxFP4S9H1D2zNQAWKoKRtMIWY9eb4": {
			"height": 100,
			"title": "nota_DaL_myThirdProject.FollowPath",
			"width": 308,
			"x": 1867,
			"y": 519
		},
		"QscMA1cVyKK6ebJTzOoUtuRdOD8yBXx4": {
			"height": 60,
			"title": "sequence",
			"width": 143,
			"x": 1669,
			"y": 262
		},
		"RPmsntFTAwUYebr0zzIR4JJway3ixN8U": {
			"height": 54,
			"title": "success",
			"width": 132,
			"x": 1917,
			"y": 173
		},
		"SCwuHRbuXkCRpBbD5Aiz721WHZUOacHo": {
			"height": 54,
			"title": "success",
			"width": 132,
			"x": 1096,
			"y": -243
		},
		"ViSpujXfJBjFbtNFNTCyoxDCOgWcXfw7": {
			"height": 54,
			"title": "failure",
			"width": 131,
			"x": 1892,
			"y": 826
		},
		"Wfkd83nyQhuiZNDifL41Wg89joy1BboA": {
			"height": 60,
			"title": "sequence",
			"width": 143,
			"x": 1035,
			"y": 540
		},
		"WrRtwLiZsXroIhmfhw3h4WhJjxkGt9v5": {
			"height": 70,
			"title": "condition",
			"width": 138,
			"x": 602,
			"y": -244
		},
		"aF1BO9ucYTQ9zsonQk41NHDJzuj3akfS": {
			"height": 94,
			"title": "store",
			"width": 502,
			"x": 1326,
			"y": 1160
		},
		"aJ6MIySxFCnTyWSmXPa7wzXDjNyZU3K6": {
			"height": 92,
			"title": "store",
			"width": 242,
			"x": 1466,
			"y": 1271
		},
		"cBKF4yUef7r5tspl7yPfZ7VGcTEJhvQc": {
			"height": 94,
			"title": "store",
			"width": 502,
			"x": 2156,
			"y": 183
		},
		"db6yWU0JRfinsCpaepbkITkpDbuhLtWT": {
			"height": 96,
			"title": "luaCondition",
			"width": 732,
			"x": 265,
			"y": 543
		},
		"kNdQoCBrv2z8MTKe8tqTrpuoDp6gGeYq": {
			"height": 54,
			"title": "success",
			"width": 132,
			"x": 1800,
			"y": 654
		},
		"kPRTVt2CXq0O0fmRnPG6vbtXVH6ck4AE": {
			"height": 92,
			"title": "nota_DaL_myThirdProject.ttdr_load_unit",
			"width": 318,
			"x": 612,
			"y": 294
		},
		"m7VeUduMV0QBHhpv9FqK1TopRpcxLJhv": {
			"height": 115,
			"title": "store",
			"width": 444,
			"x": 369,
			"y": 413
		},
		"nKF6RRX5KkqDMFtYhCA3RbkWypa14DGa": {
			"height": 94,
			"title": "store",
			"width": 319,
			"x": 1072,
			"y": -340
		},
		"nkQhcNnzQcCaZ4DnRQqZmwmZB6M5Odue": {
			"height": 60,
			"title": "sequence",
			"width": 143,
			"x": 321,
			"y": -4
		},
		"pL1JttZNOeQe7wicJjTZWnNj68QHBQFG": {
			"height": 103,
			"title": "nota_DaL_myThirdProject.SendUnit",
			"width": 309,
			"x": 1324,
			"y": 893
		},
		"rZ7Z89fotPcPZNI17pnYe1eBJj3IoVyX": {
			"height": 100,
			"title": "nota_DaL_myThirdProject.FollowPath",
			"width": 308,
			"x": 2108,
			"y": 78
		},
		"s8FUJVW4tcJZf4hPlKRx78HbDAcl9VON": {
			"height": 100,
			"title": "store",
			"width": 385,
			"x": 1213,
			"y": 481
		},
		"wUJyZ0fhvAyUQbVpaIMvWtRCaPcQQMw4": {
			"height": 70,
			"title": "condition",
			"width": 138,
			"x": 1161,
			"y": 249
		},
		"xqodlvHlGMTtVOmIpfZfBZvpBaStbRWb": {
			"height": 70,
			"title": "condition",
			"width": 138,
			"x": 1408,
			"y": 650
		}
	},
	"roles": [ {
		"categories": [],
		"name": "Role 0"
	} ],
	"root": {
		"children": [ {
			"children": [],
			"id": "Du5Ixn0WFEmg8ba0rMNcvWeUrVy7zJrZ",
			"nodeType": "luaCommand",
			"parameters": [ {
				"name": "var",
				"value": "depositArea"
			}, {
				"name": "value",
				"value": "nota_DaL_myThirdProject.myPosition(atlas[1])"
			}, {
				"name": "scriptName",
				"value": "store"
			} ],
			"scriptName": "store"
		}, {
			"children": [],
			"id": "Bf5Dd6gITdEqAbSs8mOIEeOmGNvQ0GMW",
			"nodeType": "luaCommand",
			"parameters": [ {
				"name": "var",
				"value": "missInfo"
			}, {
				"name": "value",
				"value": "core.MissionInfo()"
			}, {
				"name": "scriptName",
				"value": "store"
			} ],
			"scriptName": "store"
		}, {
			"children": [ {
				"children": [],
				"id": "nKF6RRX5KkqDMFtYhCA3RbkWypa14DGa",
				"nodeType": "luaCommand",
				"parameters": [ {
					"name": "var",
					"value": "mytarget"
				}, {
					"name": "value",
					"value": "Spring.ValidUnitID(unit_to_rescue[1])"
				}, {
					"name": "scriptName",
					"value": "store"
				} ],
				"scriptName": "store"
			}, {
				"children": [],
				"id": "SCwuHRbuXkCRpBbD5Aiz721WHZUOacHo",
				"nodeType": "success",
				"parameters": []
			}, {
				"children": [],
				"id": "ABj1qKoBeRTcjS2BkRL3Vqb2PvIWrzeF",
				"nodeType": "failure",
				"parameters": []
			} ],
			"id": "WrRtwLiZsXroIhmfhw3h4WhJjxkGt9v5",
			"nodeType": "condition",
			"parameters": [ {
				"name": "repeat",
				"value": "false"
			} ]
		}, {
			"children": [ {
				"children": [],
				"id": "rZ7Z89fotPcPZNI17pnYe1eBJj3IoVyX",
				"nodeType": "luaCommand",
				"parameters": [ {
					"name": "atlas",
					"value": "atlas"
				}, {
					"name": "path",
					"value": "mypath"
				}, {
					"name": "scriptName",
					"value": "nota_DaL_myThirdProject.FollowPath"
				} ],
				"scriptName": "nota_DaL_myThirdProject.FollowPath"
			}, {
				"children": [],
				"id": "RPmsntFTAwUYebr0zzIR4JJway3ixN8U",
				"nodeType": "success",
				"parameters": []
			}, {
				"children": [ {
					"children": [],
					"id": "cBKF4yUef7r5tspl7yPfZ7VGcTEJhvQc",
					"nodeType": "luaCommand",
					"parameters": [ {
						"name": "var",
						"value": "Map"
					}, {
						"name": "value",
						"value": "nota_DaL_myThirdProject.UpdateMapCost(atlas,Map,10,2000)"
					}, {
						"name": "scriptName",
						"value": "store"
					} ],
					"scriptName": "store"
				}, {
					"children": [],
					"id": "DuwtrIPCBXh618t7rjT26nHmS7DQV2Ut",
					"nodeType": "failure",
					"parameters": []
				} ],
				"id": "QscMA1cVyKK6ebJTzOoUtuRdOD8yBXx4",
				"nodeType": "sequence",
				"parameters": []
			} ],
			"id": "wUJyZ0fhvAyUQbVpaIMvWtRCaPcQQMw4",
			"nodeType": "condition",
			"parameters": [ {
				"name": "repeat",
				"value": "false"
			} ]
		}, {
			"children": [],
			"id": "kPRTVt2CXq0O0fmRnPG6vbtXVH6ck4AE",
			"nodeType": "luaCommand",
			"parameters": [ {
				"name": "atlas",
				"value": "atlas"
			}, {
				"name": "rescueunits",
				"value": "unit_to_rescue"
			}, {
				"name": "scriptName",
				"value": "nota_DaL_myThirdProject.ttdr_load_unit"
			} ],
			"scriptName": "nota_DaL_myThirdProject.ttdr_load_unit"
		}, {
			"children": [],
			"id": "m7VeUduMV0QBHhpv9FqK1TopRpcxLJhv",
			"nodeType": "luaCommand",
			"parameters": [ {
				"name": "var",
				"value": "myPos"
			}, {
				"name": "value",
				"value": "nota_DaL_myThirdProject.myPosition(atlas[1])"
			}, {
				"name": "scriptName",
				"value": "store"
			} ],
			"scriptName": "store"
		}, {
			"children": [ {
				"children": [],
				"id": "ORwOw5OpEpaAkqI40DMDtBl0ZI8Jfwm2",
				"nodeType": "luaCommand",
				"parameters": [ {
					"name": "atlas",
					"value": "atlas"
				}, {
					"name": "saveAreaCenter",
					"value": "missInfo.safeArea.center"
				}, {
					"name": "depositArea",
					"value": "depositArea"
				}, {
					"name": "saveAreaRadius",
					"value": "50"
				}, {
					"name": "scriptName",
					"value": "nota_DaL_myThirdProject.ttdr_unload_to_safeArea"
				} ],
				"scriptName": "nota_DaL_myThirdProject.ttdr_unload_to_safeArea"
			}, {
				"children": [ {
					"children": [],
					"id": "s8FUJVW4tcJZf4hPlKRx78HbDAcl9VON",
					"nodeType": "luaCommand",
					"parameters": [ {
						"name": "var",
						"value": "Map"
					}, {
						"name": "value",
						"value": "nota_DaL_myThirdProject.ReversePath(atlas)"
					}, {
						"name": "scriptName",
						"value": "store"
					} ],
					"scriptName": "store"
				}, {
					"children": [ {
						"children": [],
						"id": "PwYOxFP4S9H1D2zNQAWKoKRtMIWY9eb4",
						"nodeType": "luaCommand",
						"parameters": [ {
							"name": "atlas",
							"value": "atlas"
						}, {
							"name": "path",
							"value": "mypath"
						}, {
							"name": "scriptName",
							"value": "nota_DaL_myThirdProject.FollowPath"
						} ],
						"scriptName": "nota_DaL_myThirdProject.FollowPath"
					}, {
						"children": [],
						"id": "kNdQoCBrv2z8MTKe8tqTrpuoDp6gGeYq",
						"nodeType": "success",
						"parameters": []
					}, {
						"children": [ {
							"children": [],
							"id": "AzsxEffwlaz8hdXIqkUk0C6z7MDHGAyn",
							"nodeType": "luaCommand",
							"parameters": [ {
								"name": "var",
								"value": "Map"
							}, {
								"name": "value",
								"value": "nota_DaL_myThirdProject.UpdateMapCost(atlas,Map,10,2000)"
							}, {
								"name": "scriptName",
								"value": "store"
							} ],
							"scriptName": "store"
						}, {
							"children": [],
							"id": "ViSpujXfJBjFbtNFNTCyoxDCOgWcXfw7",
							"nodeType": "failure",
							"parameters": []
						} ],
						"id": "CJoVPU9JiE4MXwS8sJ0Oba3Dr5w2L5gN",
						"nodeType": "sequence",
						"parameters": []
					} ],
					"id": "xqodlvHlGMTtVOmIpfZfBZvpBaStbRWb",
					"nodeType": "condition",
					"parameters": [ {
						"name": "repeat",
						"value": "false"
					} ]
				}, {
					"children": [],
					"id": "pL1JttZNOeQe7wicJjTZWnNj68QHBQFG",
					"nodeType": "luaCommand",
					"parameters": [ {
						"name": "atlas",
						"value": "atlas"
					}, {
						"name": "position",
						"value": "missInfo.safeArea.center"
					}, {
						"name": "scriptName",
						"value": "nota_DaL_myThirdProject.SendUnit"
					} ],
					"scriptName": "nota_DaL_myThirdProject.SendUnit"
				}, {
					"children": [ {
						"children": [],
						"id": "JkacCHlzGMZNGUFdqMDi02jg0I6X7Dcf",
						"nodeType": "luaCommand",
						"parameters": [ {
							"name": "var",
							"value": "Map"
						}, {
							"name": "value",
							"value": "bb.Map"
						}, {
							"name": "scriptName",
							"value": "store"
						} ],
						"scriptName": "store"
					}, {
						"children": [],
						"id": "8Jfi7iR16z7Hvl4C5TAbIOO8kq8uL0r6",
						"nodeType": "success",
						"parameters": []
					} ],
					"id": "JhKIfo1uSdA2bmknDdaBJB5bsIG9AbJK",
					"nodeType": "luaCondition",
					"parameters": [ {
						"name": "expression",
						"value": "bb.Map  ~= nil"
					}, {
						"name": "repeat",
						"value": "false"
					} ]
				}, {
					"children": [],
					"id": "aF1BO9ucYTQ9zsonQk41NHDJzuj3akfS",
					"nodeType": "luaCommand",
					"parameters": [ {
						"name": "var",
						"value": "bb[atlas[1]]"
					}, {
						"name": "value",
						"value": "nil"
					}, {
						"name": "scriptName",
						"value": "store"
					} ],
					"scriptName": "store"
				}, {
					"children": [],
					"id": "aJ6MIySxFCnTyWSmXPa7wzXDjNyZU3K6",
					"nodeType": "luaCommand",
					"parameters": [ {
						"name": "var",
						"value": "safeArea"
					}, {
						"name": "value",
						"value": "missInfo.safeArea.center"
					}, {
						"name": "scriptName",
						"value": "store"
					} ],
					"scriptName": "store"
				}, {
					"children": [],
					"id": "JFqKwIKPde2kZ7USP5CQROonvFIKo6SK",
					"nodeType": "luaCommand",
					"parameters": [ {
						"name": "atlas",
						"value": "atlas"
					}, {
						"name": "saveAreaCenter",
						"value": "missInfo.safeArea.center"
					}, {
						"name": "depositArea",
						"value": "depositArea"
					}, {
						"name": "saveAreaRadius",
						"value": "50"
					}, {
						"name": "scriptName",
						"value": "nota_DaL_myThirdProject.ttdr_unload_to_safeArea"
					} ],
					"scriptName": "nota_DaL_myThirdProject.ttdr_unload_to_safeArea"
				} ],
				"id": "Wfkd83nyQhuiZNDifL41Wg89joy1BboA",
				"nodeType": "sequence",
				"parameters": []
			} ],
			"id": "db6yWU0JRfinsCpaepbkITkpDbuhLtWT",
			"nodeType": "luaCondition",
			"parameters": [ {
				"name": "expression",
				"value": "myPos:Distance(missInfo.safeArea.center)<missInfo.safeArea.radius"
			}, {
				"name": "repeat",
				"value": "false"
			} ]
		} ],
		"id": "nkQhcNnzQcCaZ4DnRQqZmwmZB6M5Odue",
		"nodeType": "sequence",
		"parameters": []
	}
}