{
	"additionalNodes": [],
	"additionalParameters": {
		"root": {
			"height": 190,
			"width": 274
		}
	},
	"inputs": [ {
		"command": "Variable",
		"name": "atlas"
	}, {
		"command": "Variable",
		"name": "UnitsToBeRescued"
	}, {
		"command": "Variable",
		"name": "Map"
	} ],
	"outputs": [ {
		"name": "StartIndex"
	}, {
		"name": "GoalIndex"
	} ],
	"properties": {
		"5Q32F8FSEZQCVAZO7PuxCYTzvi9eLibe": {
			"height": 94,
			"title": "store",
			"width": 502,
			"x": 500,
			"y": 46
		},
		"7r9dydICL9JKcbXNqQTWlASe5qeb7Gss": {
			"height": 72,
			"title": "wait",
			"width": 131,
			"x": 599,
			"y": -61
		},
		"Fhnk2Gshg0WqhP2zPVgm4dXOmJgtBDqC": {
			"height": 94,
			"title": "store",
			"width": 471,
			"x": 468,
			"y": -143
		},
		"L5R27UrLGaEQvEDAdzaXyllflzGjheOd": {
			"height": 94,
			"title": "store",
			"width": 471,
			"x": 486,
			"y": 219
		},
		"QvoAqnxYhWxrPmlmIXuWr6Os1QqlJgR0": {
			"height": 72,
			"title": "wait",
			"width": 131,
			"x": 566,
			"y": 138
		},
		"WYxER39MX6mPi5fgQkDJ4MYePznKrSu1": {
			"height": 60,
			"title": "sequence",
			"width": 143,
			"x": 269,
			"y": 39
		},
		"bdu30bj7f2ZfwLyYUwWXySITDaTeEC42": {
			"height": 72,
			"title": "wait",
			"width": 131,
			"x": 537,
			"y": 296
		},
		"saaH23QxbXvCa3GJTqtT4kAd7xHVNXrL": {
			"height": 94,
			"title": "store",
			"width": 502,
			"x": 467,
			"y": 343
		}
	},
	"roles": [ {
		"categories": [],
		"name": "Role 0"
	} ],
	"root": {
		"children": [ {
			"children": [],
			"id": "Fhnk2Gshg0WqhP2zPVgm4dXOmJgtBDqC",
			"nodeType": "luaCommand",
			"parameters": [ {
				"name": "var",
				"value": "pos"
			}, {
				"name": "value",
				"value": "nota_DaL_myThirdProject.myPosition(atlas[1])"
			}, {
				"name": "scriptName",
				"value": "store"
			} ],
			"scriptName": "store"
		}, {
			"children": [],
			"id": "7r9dydICL9JKcbXNqQTWlASe5qeb7Gss",
			"nodeType": "wait",
			"parameters": [ {
				"name": "time",
				"value": 1
			} ]
		}, {
			"children": [],
			"id": "5Q32F8FSEZQCVAZO7PuxCYTzvi9eLibe",
			"nodeType": "luaCommand",
			"parameters": [ {
				"name": "var",
				"value": "StartIndex"
			}, {
				"name": "value",
				"value": "nota_DaL_myThirdProject.FromPositionToGridIndex(pos,Map)"
			}, {
				"name": "scriptName",
				"value": "store"
			} ],
			"scriptName": "store"
		}, {
			"children": [],
			"id": "QvoAqnxYhWxrPmlmIXuWr6Os1QqlJgR0",
			"nodeType": "wait",
			"parameters": [ {
				"name": "time",
				"value": 2
			} ]
		}, {
			"children": [],
			"id": "L5R27UrLGaEQvEDAdzaXyllflzGjheOd",
			"nodeType": "luaCommand",
			"parameters": [ {
				"name": "var",
				"value": "dest"
			}, {
				"name": "value",
				"value": "nota_DaL_myThirdProject.myPosition(UnitsToBeRescued[1])"
			}, {
				"name": "scriptName",
				"value": "store"
			} ],
			"scriptName": "store"
		}, {
			"children": [],
			"id": "bdu30bj7f2ZfwLyYUwWXySITDaTeEC42",
			"nodeType": "wait",
			"parameters": [ {
				"name": "time",
				"value": 1
			} ]
		}, {
			"children": [],
			"id": "saaH23QxbXvCa3GJTqtT4kAd7xHVNXrL",
			"nodeType": "luaCommand",
			"parameters": [ {
				"name": "var",
				"value": "GoalIndex"
			}, {
				"name": "value",
				"value": "nota_DaL_myThirdProject.FromPositionToGridIndex(dest,Map)"
			}, {
				"name": "scriptName",
				"value": "store"
			} ],
			"scriptName": "store"
		} ],
		"id": "WYxER39MX6mPi5fgQkDJ4MYePznKrSu1",
		"nodeType": "sequence",
		"parameters": []
	}
}