{
	"additionalNodes": [],
	"additionalParameters": {
		"root": {
			"height": 170,
			"width": 266
		}
	},
	"inputs": [ {
		"command": "Variable",
		"name": "Task"
	}, {
		"command": "Variable",
		"name": "TaskReportGroup"
	} ],
	"outputs": [ {
		"name": "Task"
	}, {
		"name": "TaskReportGroup"
	} ],
	"properties": {
		"3G4kJj3Ci7vj3ArC95P7XWNhOlS4Zo8i": {
			"height": 102,
			"title": "store",
			"width": 518,
			"x": 850,
			"y": -34
		},
		"GJIHkdlS5BrPd1G8QUwxDWAE3E1haEV3": {
			"height": 60,
			"title": "sequence",
			"width": 143,
			"x": 632,
			"y": 181
		},
		"agZkEBJwN2TyfrRSuJbgbZ1ETqKv5kJq": {
			"height": 102,
			"title": "store",
			"width": 518,
			"x": 856,
			"y": 76
		},
		"imOxohf9oaINfQpgJQwl4mi82xwflTck": {
			"height": 72,
			"title": "wait",
			"width": 131,
			"x": 843,
			"y": 283
		},
		"nZA6jVlX6pFScbmIAY5RPCJwWzrnNOMX": {
			"height": 92,
			"title": "store",
			"width": 131,
			"x": 809,
			"y": 191
		},
		"qgZf8X703XPJmno65hsnsxoXmTkN5k7n": {
			"height": 72,
			"title": "wait",
			"width": 131,
			"x": 1408,
			"y": 32
		},
		"uPChoC9onrwJheFFPW5XBT5yARpleJFv": {
			"height": 62,
			"title": "success",
			"width": 132,
			"x": 827,
			"y": 348
		},
		"v7PvfRynji87FTUq6pISy5SAdE9fBTkp": {
			"height": 90,
			"title": "luaCondition",
			"width": 239,
			"x": 357,
			"y": 29
		},
		"z3q8ao2TZSKd3P890WEv2QvL7jAa1yiC": {
			"height": 60,
			"title": "sequence",
			"width": 143,
			"x": 653,
			"y": -32
		}
	},
	"roles": [ {
		"categories": [],
		"name": "Role 0"
	} ],
	"root": {
		"children": [ {
			"children": [ {
				"children": [],
				"id": "3G4kJj3Ci7vj3ArC95P7XWNhOlS4Zo8i",
				"nodeType": "luaCommand",
				"parameters": [ {
					"name": "var",
					"value": "Task"
				}, {
					"name": "value",
					"value": "nota_DaL_myThirdProject.TaskUpdate(Task,TaskReportGroup)"
				}, {
					"name": "scriptName",
					"value": "store"
				} ],
				"scriptName": "store"
			}, {
				"children": [],
				"id": "qgZf8X703XPJmno65hsnsxoXmTkN5k7n",
				"nodeType": "wait",
				"parameters": [ {
					"name": "time",
					"value": 20
				} ]
			}, {
				"children": [],
				"id": "agZkEBJwN2TyfrRSuJbgbZ1ETqKv5kJq",
				"nodeType": "luaCommand",
				"parameters": [ {
					"name": "var",
					"value": "TaskReportGroup"
				}, {
					"name": "value",
					"value": "nil"
				}, {
					"name": "scriptName",
					"value": "store"
				} ],
				"scriptName": "store"
			} ],
			"id": "z3q8ao2TZSKd3P890WEv2QvL7jAa1yiC",
			"nodeType": "sequence",
			"parameters": []
		}, {
			"children": [ {
				"children": [],
				"id": "nZA6jVlX6pFScbmIAY5RPCJwWzrnNOMX",
				"nodeType": "luaCommand",
				"parameters": [ {
					"name": "var",
					"value": "Task"
				}, {
					"name": "value",
					"value": "Task"
				}, {
					"name": "scriptName",
					"value": "store"
				} ],
				"scriptName": "store"
			}, {
				"children": [],
				"id": "imOxohf9oaINfQpgJQwl4mi82xwflTck",
				"nodeType": "wait",
				"parameters": [ {
					"name": "time",
					"value": 4
				} ]
			}, {
				"children": [],
				"id": "uPChoC9onrwJheFFPW5XBT5yARpleJFv",
				"nodeType": "success",
				"parameters": []
			} ],
			"id": "GJIHkdlS5BrPd1G8QUwxDWAE3E1haEV3",
			"nodeType": "sequence",
			"parameters": []
		} ],
		"id": "v7PvfRynji87FTUq6pISy5SAdE9fBTkp",
		"nodeType": "luaCondition",
		"parameters": [ {
			"name": "expression",
			"value": "TaskReportGroup ~= nil"
		}, {
			"name": "repeat",
			"value": "false"
		} ]
	}
}