{
	"additionalNodes": [ {
		"children": [],
		"id": "uIfaTXxt7I6B2q974aZM8Pj2ZqR0NrQg",
		"nodeType": "luaCommand",
		"parameters": [ {
			"name": "var",
			"value": "Atlas"
		}, {
			"name": "value",
			"value": "core.FilterUnitsByCategory(units,atlas_category)"
		}, {
			"name": "scriptName",
			"value": "store"
		} ],
		"scriptName": "store"
	}, {
		"children": [],
		"id": "VYmVqQRfu8WlY3TTKVvDumIhf2bbAeT9",
		"nodeType": "luaCommand",
		"parameters": [ {
			"name": "var",
			"value": "unitsToRescue_category"
		}, {
			"name": "value",
			"value": "Categories.nota_DaL_myThirdProject.units_to_rescue_category"
		}, {
			"name": "scriptName",
			"value": "store"
		} ],
		"scriptName": "store"
	}, {
		"children": [],
		"id": "piKd8BqmGKzeKPRFL2KIP039AcBokUDN",
		"nodeType": "luaCommand",
		"parameters": [ {
			"name": "var",
			"value": "atlas_category"
		}, {
			"name": "value",
			"value": "Categories.nota_DaL_myThirdProject.Atlas"
		}, {
			"name": "scriptName",
			"value": "store"
		} ],
		"scriptName": "store"
	} ],
	"additionalParameters": {
		"root": {
			"height": 88,
			"width": 180
		}
	},
	"inputs": [],
	"outputs": [],
	"properties": {
		"1amX5hlANiWe6KdwjA3EG44riVPdwhtF": {
			"height": 94,
			"title": "store",
			"width": 226,
			"x": 2637,
			"y": 2392
		},
		"2UOMNrigDFMbUcI1dA4cJFDSJNsqrLXl": {
			"height": 99,
			"title": "store",
			"width": 266,
			"x": 2656,
			"y": 1476
		},
		"2gDHxK64GQ3OvQ8b57BvNcCS9NSRMjAn": {
			"height": 54,
			"title": "success",
			"width": 132,
			"x": 1629,
			"y": 2764
		},
		"3BxT9rKHt8pz5VO2TxWX1EmLIJvRR32p": {
			"height": 90,
			"title": "luaCondition",
			"width": 244,
			"x": 1984,
			"y": 1547
		},
		"3HHYwQgeRoSSXpykFr0olxabgzJj2JA8": {
			"height": 90,
			"title": "luaCondition",
			"width": 244,
			"x": 1984,
			"y": 1072
		},
		"5RZzuMrkX108ce4i6sN1UqrNDzfrwNBt": {
			"height": 60,
			"title": "sequence",
			"width": 143,
			"x": 830,
			"y": 1049
		},
		"87E30IpKp9FAXzLQC5FmbGImCfri1U2x": {
			"height": 94,
			"title": "store",
			"width": 664,
			"x": 1801,
			"y": 704
		},
		"BWBI1XFiUS9rIy4Ve1MPcBfZEXB96LB4": {
			"height": 94,
			"title": "store",
			"width": 247,
			"x": 2179,
			"y": 1867
		},
		"C85vriBinR3Ty8GyBszAIpUW1pwk4PBI": {
			"height": 362,
			"title": "reference",
			"width": 389,
			"x": 2309,
			"y": 2517
		},
		"CY8PXiLnwptv33FHr7Gzy6Zd316MUP7O": {
			"height": 59,
			"title": "sequence",
			"width": 143,
			"x": 617,
			"y": 243
		},
		"DTzgjiLfwEgjogHLbbywoPEvEE7e2NHF": {
			"height": 99,
			"title": "store",
			"width": 266,
			"x": 2789,
			"y": 927
		},
		"EN94DT6cYoIWehzsNrl2ak7SahiLv0qD": {
			"height": 104,
			"title": "store",
			"width": 541,
			"x": 1540,
			"y": 2879
		},
		"HhudUEXd8Pqk0CNeA3GoZNSQI0gh0AIF": {
			"height": 94,
			"title": "store",
			"width": 531,
			"x": 1797,
			"y": -25
		},
		"Iq5h1x6EfnPMO3ZQXe74Dkxd29adX1DO": {
			"height": 90,
			"title": "luaCondition",
			"width": 244,
			"x": 1139,
			"y": 2023
		},
		"JzFsRMFrdQXhAFxJ92G16aU5bNoq5INw": {
			"height": 94,
			"title": "store",
			"width": 198,
			"x": 1816,
			"y": 329
		},
		"NlzpBI7B05SVvhSqa9S9avTkCnojBjBi": {
			"height": 102,
			"title": "store",
			"width": 518,
			"x": 2647,
			"y": 804
		},
		"S0BPQitsRys8sBst6HuDgIe6vQ4ilsJb": {
			"height": 54,
			"title": "success",
			"width": 132,
			"x": 2390,
			"y": 1422
		},
		"S8HihsJvZF2HVFAQdBDdeZmEO5gFcaKs": {
			"height": 99,
			"title": "store",
			"width": 266,
			"x": 2671,
			"y": 1688
		},
		"UhXZ1NoS6u6wobrIr7Fxe4pdKAvKm2Cj": {
			"height": 90,
			"title": "luaCondition",
			"width": 244,
			"x": 2029,
			"y": 1352
		},
		"UjDID2YyToeosBLVJoYzYXDmHCbscqK0": {
			"height": 60,
			"title": "sequence",
			"width": 143,
			"x": 2355,
			"y": 1327
		},
		"UnCTYV7bfiIkHXubbKeZqDeSGbYc0ISY": {
			"height": 72,
			"title": "wait",
			"width": 131,
			"x": 1535,
			"y": 1688
		},
		"VCEwyJeu6meqrarq8kiAdfGz7MELOi3g": {
			"height": 94,
			"title": "store",
			"width": 531,
			"x": 1811,
			"y": 164
		},
		"VYmVqQRfu8WlY3TTKVvDumIhf2bbAeT9": {
			"height": 94,
			"title": "store",
			"width": 531,
			"x": 4607,
			"y": -807
		},
		"WDx5Ay0D71rENOuCfneK1VMFGQtEpqCJ": {
			"height": 90,
			"title": "luaCondition",
			"width": 239,
			"x": 2013,
			"y": 835
		},
		"XHYY5f98Vt29PYBf6uZsYPSP9Gar1KDD": {
			"height": 60,
			"title": "sequence",
			"width": 143,
			"x": 2377,
			"y": 828
		},
		"XgwbEavyiuLroWEbbePnktdtLKu0sRzu": {
			"height": 102,
			"title": "store",
			"width": 637,
			"x": 2176,
			"y": 2152
		},
		"Yr8yMhLrbwMW4doD3OUxe2suEGARMbMY": {
			"height": 94,
			"title": "store",
			"width": 561,
			"x": 1815,
			"y": 250
		},
		"adxCndHMRbrWhcQrjlSiKvBGk1Mnhd7X": {
			"height": 94,
			"title": "store",
			"width": 531,
			"x": 1805,
			"y": 70
		},
		"bgdfCdChBhaFsBO22KYaLEAwycOFfHhs": {
			"height": 94,
			"title": "store",
			"width": 538,
			"x": 2660,
			"y": 1600
		},
		"ecGEiFrKCTZQM3FREWssmEWrPL7q7Gis": {
			"height": 60,
			"title": "sequence",
			"width": 143,
			"x": 1786,
			"y": 1831
		},
		"g5ZROQ4egUh2phkNgOlx7NkSCocHN1l1": {
			"height": 102,
			"title": "store",
			"width": 562,
			"x": 2523,
			"y": 2247
		},
		"gDhKqOXnJKo1XA7GFDO6689qny3wM5iu": {
			"height": 94,
			"title": "store",
			"width": 242,
			"x": 1815,
			"y": 515
		},
		"hfZdChEgvgHjaN8AN1wG7RCuGr2zUR9k": {
			"height": 60,
			"title": "sequence",
			"width": 143,
			"x": 1755,
			"y": 2289
		},
		"hvQhnb7SEimc9mxmcWV6f5oe7ZcjIKXO": {
			"height": 94,
			"title": "store",
			"width": 538,
			"x": 2627,
			"y": 1315
		},
		"ixMEXr9dThTZWUmUZWR2p9d1kmAR1IsU": {
			"height": 60,
			"title": "sequence",
			"width": 143,
			"x": 2364,
			"y": 1540
		},
		"j23pBfiVj2cVaIcXN45g63CIyzEZMaR8": {
			"height": 104,
			"title": "store",
			"width": 518,
			"x": 2101,
			"y": 1757
		},
		"jHwsWz9u6eRzlQwx6NhDntjxHSjQ0K1T": {
			"height": 99,
			"title": "store",
			"width": 266,
			"x": 2703,
			"y": 1186
		},
		"jagXwkovEV0PcOw24XM1dlWyLHLVLupr": {
			"height": 102,
			"title": "store",
			"width": 562,
			"x": 2191,
			"y": 2059
		},
		"lVkMFSkX6b04JglCbdRxLm4VJJ7etyJD": {
			"height": 94,
			"title": "store",
			"width": 198,
			"x": 1809,
			"y": 411
		},
		"le9gXvqbci9SdHW6tXMN68BHtNYioquY": {
			"height": 54,
			"title": "success",
			"width": 132,
			"x": 2400,
			"y": 1669
		},
		"nQbMhbIvdED4qAtU3E8543qkhNqyYx7B": {
			"height": 54,
			"title": "success",
			"width": 132,
			"x": 2367,
			"y": 1183
		},
		"piKd8BqmGKzeKPRFL2KIP039AcBokUDN": {
			"height": 94,
			"title": "store",
			"width": 531,
			"x": 4522,
			"y": -979
		},
		"po92CeqTAac7KKg9QjNziAXrJxWg24GY": {
			"height": 54,
			"title": "success",
			"width": 132,
			"x": 2403,
			"y": 948
		},
		"steLzVN7usBKZEFE3XLzUSAmygoq1Q2t": {
			"height": 94,
			"title": "store",
			"width": 531,
			"x": 1816,
			"y": 601
		},
		"tOZtHpd6DTFP5SNAUqir0XE4x6rR41NW": {
			"height": 60,
			"title": "sequence",
			"width": 143,
			"x": 2381,
			"y": 1078
		},
		"uIfaTXxt7I6B2q974aZM8Pj2ZqR0NrQg": {
			"height": 94,
			"title": "store",
			"width": 531,
			"x": 4527,
			"y": -891
		},
		"yyHzqSGHMlcGxn9KuxFBJftplbAK8TJA": {
			"height": 94,
			"title": "store",
			"width": 538,
			"x": 2664,
			"y": 1063
		},
		"z6gHr36r01iVM4L6UgCvTmsfdWButpSc": {
			"height": 70,
			"title": "condition",
			"width": 138,
			"x": 1043,
			"y": 2789
		},
		"zvqQl5dl20gI6VqJ2fdYJOUJTiz14PiQ": {
			"height": 94,
			"title": "store",
			"width": 386,
			"x": 2202,
			"y": 1964
		}
	},
	"roles": [ {
		"categories": [ "nota_DaL_myThirdProject.Atlas", "nota_DaL_myThirdProject.units_to_rescue_category" ],
		"name": "Role 0"
	} ],
	"root": {
		"children": [ {
			"children": [],
			"id": "HhudUEXd8Pqk0CNeA3GoZNSQI0gh0AIF",
			"nodeType": "luaCommand",
			"parameters": [ {
				"name": "var",
				"value": "atlas_category"
			}, {
				"name": "value",
				"value": "Categories.nota_DaL_myThirdProject.Atlas"
			}, {
				"name": "scriptName",
				"value": "store"
			} ],
			"scriptName": "store"
		}, {
			"children": [],
			"id": "adxCndHMRbrWhcQrjlSiKvBGk1Mnhd7X",
			"nodeType": "luaCommand",
			"parameters": [ {
				"name": "var",
				"value": "unitsToRescue_category"
			}, {
				"name": "value",
				"value": "Categories.nota_DaL_myThirdProject.units_to_rescue_category"
			}, {
				"name": "scriptName",
				"value": "store"
			} ],
			"scriptName": "store"
		}, {
			"children": [],
			"id": "VCEwyJeu6meqrarq8kiAdfGz7MELOi3g",
			"nodeType": "luaCommand",
			"parameters": [ {
				"name": "var",
				"value": "Atlas"
			}, {
				"name": "value",
				"value": "core.FilterUnitsByCategory(units,atlas_category)"
			}, {
				"name": "scriptName",
				"value": "store"
			} ],
			"scriptName": "store"
		}, {
			"children": [],
			"id": "Yr8yMhLrbwMW4doD3OUxe2suEGARMbMY",
			"nodeType": "luaCommand",
			"parameters": [ {
				"name": "var",
				"value": "UnitsToBeRescued"
			}, {
				"name": "value",
				"value": "core.FilterUnitsByCategory(Spring.GetAllUnits (),unitsToRescue_category)"
			}, {
				"name": "scriptName",
				"value": "store"
			} ],
			"scriptName": "store"
		}, {
			"children": [],
			"id": "JzFsRMFrdQXhAFxJ92G16aU5bNoq5INw",
			"nodeType": "luaCommand",
			"parameters": [ {
				"name": "var",
				"value": "missInfo"
			}, {
				"name": "value",
				"value": "core.MissionInfo()"
			}, {
				"name": "scriptName",
				"value": "store"
			} ],
			"scriptName": "store"
		}, {
			"children": [],
			"id": "lVkMFSkX6b04JglCbdRxLm4VJJ7etyJD",
			"nodeType": "luaCommand",
			"parameters": [ {
				"name": "var",
				"value": "myscore"
			}, {
				"name": "value",
				"value": "missInfo.score"
			}, {
				"name": "scriptName",
				"value": "store"
			} ],
			"scriptName": "store"
		}, {
			"children": [],
			"id": "gDhKqOXnJKo1XA7GFDO6689qny3wM5iu",
			"nodeType": "luaCommand",
			"parameters": [ {
				"name": "var",
				"value": "mySafeArea"
			}, {
				"name": "value",
				"value": "missInfo.safeArea.center"
			}, {
				"name": "scriptName",
				"value": "store"
			} ],
			"scriptName": "store"
		}, {
			"children": [],
			"id": "steLzVN7usBKZEFE3XLzUSAmygoq1Q2t",
			"nodeType": "luaCommand",
			"parameters": [ {
				"name": "var",
				"value": "groupArray"
			}, {
				"name": "value",
				"value": "nota_DaL_myThirdProject.Split_in_N_Groups(Atlas,20)"
			}, {
				"name": "scriptName",
				"value": "store"
			} ],
			"scriptName": "store"
		}, {
			"children": [],
			"id": "87E30IpKp9FAXzLQC5FmbGImCfri1U2x",
			"nodeType": "luaCommand",
			"parameters": [ {
				"name": "var",
				"value": "UnitsToBeRescued"
			}, {
				"name": "value",
				"value": "nota_DaL_myThirdProject.SortUnitsByDistanceFromPoint(UnitsToBeRescued,mySafeArea)"
			}, {
				"name": "scriptName",
				"value": "store"
			} ],
			"scriptName": "store"
		}, {
			"children": [ {
				"children": [ {
					"children": [ {
						"children": [],
						"id": "NlzpBI7B05SVvhSqa9S9avTkCnojBjBi",
						"nodeType": "luaCommand",
						"parameters": [ {
							"name": "var",
							"value": "Task"
						}, {
							"name": "value",
							"value": "nota_DaL_myThirdProject.TaskUpdate(Task,TaskReportFirstGroup)"
						}, {
							"name": "scriptName",
							"value": "store"
						} ],
						"scriptName": "store"
					}, {
						"children": [],
						"id": "DTzgjiLfwEgjogHLbbywoPEvEE7e2NHF",
						"nodeType": "luaCommand",
						"parameters": [ {
							"name": "var",
							"value": "TaskReportFirstGroup"
						}, {
							"name": "value",
							"value": "nil"
						}, {
							"name": "scriptName",
							"value": "store"
						} ],
						"scriptName": "store"
					} ],
					"id": "XHYY5f98Vt29PYBf6uZsYPSP9Gar1KDD",
					"nodeType": "sequence",
					"parameters": []
				}, {
					"children": [],
					"id": "po92CeqTAac7KKg9QjNziAXrJxWg24GY",
					"nodeType": "success",
					"parameters": []
				} ],
				"id": "WDx5Ay0D71rENOuCfneK1VMFGQtEpqCJ",
				"nodeType": "luaCondition",
				"parameters": [ {
					"name": "expression",
					"value": "TaskReportFirstGroup ~= nil"
				}, {
					"name": "repeat",
					"value": "false"
				} ]
			}, {
				"children": [ {
					"children": [ {
						"children": [],
						"id": "yyHzqSGHMlcGxn9KuxFBJftplbAK8TJA",
						"nodeType": "luaCommand",
						"parameters": [ {
							"name": "var",
							"value": "Task"
						}, {
							"name": "value",
							"value": "nota_DaL_myThirdProject.TaskUpdate(Task,TaskReportSecondGroup)"
						}, {
							"name": "scriptName",
							"value": "store"
						} ],
						"scriptName": "store"
					}, {
						"children": [],
						"id": "jHwsWz9u6eRzlQwx6NhDntjxHSjQ0K1T",
						"nodeType": "luaCommand",
						"parameters": [ {
							"name": "var",
							"value": "TaskReportSecondGroup"
						}, {
							"name": "value",
							"value": "nil"
						}, {
							"name": "scriptName",
							"value": "store"
						} ],
						"scriptName": "store"
					} ],
					"id": "tOZtHpd6DTFP5SNAUqir0XE4x6rR41NW",
					"nodeType": "sequence",
					"parameters": []
				}, {
					"children": [],
					"id": "nQbMhbIvdED4qAtU3E8543qkhNqyYx7B",
					"nodeType": "success",
					"parameters": []
				} ],
				"id": "3HHYwQgeRoSSXpykFr0olxabgzJj2JA8",
				"nodeType": "luaCondition",
				"parameters": [ {
					"name": "expression",
					"value": "TaskReportSecondGroup ~= nil"
				}, {
					"name": "repeat",
					"value": "false"
				} ]
			}, {
				"children": [ {
					"children": [ {
						"children": [],
						"id": "hvQhnb7SEimc9mxmcWV6f5oe7ZcjIKXO",
						"nodeType": "luaCommand",
						"parameters": [ {
							"name": "var",
							"value": "Task"
						}, {
							"name": "value",
							"value": "nota_DaL_myThirdProject.TaskUpdate(Task,TaskReportThirdGroup)"
						}, {
							"name": "scriptName",
							"value": "store"
						} ],
						"scriptName": "store"
					}, {
						"children": [],
						"id": "2UOMNrigDFMbUcI1dA4cJFDSJNsqrLXl",
						"nodeType": "luaCommand",
						"parameters": [ {
							"name": "var",
							"value": "TaskReportThirdGroup"
						}, {
							"name": "value",
							"value": "nil"
						}, {
							"name": "scriptName",
							"value": "store"
						} ],
						"scriptName": "store"
					} ],
					"id": "UjDID2YyToeosBLVJoYzYXDmHCbscqK0",
					"nodeType": "sequence",
					"parameters": []
				}, {
					"children": [],
					"id": "S0BPQitsRys8sBst6HuDgIe6vQ4ilsJb",
					"nodeType": "success",
					"parameters": []
				} ],
				"id": "UhXZ1NoS6u6wobrIr7Fxe4pdKAvKm2Cj",
				"nodeType": "luaCondition",
				"parameters": [ {
					"name": "expression",
					"value": "TaskReportThirdGroup ~= nil"
				}, {
					"name": "repeat",
					"value": "false"
				} ]
			}, {
				"children": [ {
					"children": [ {
						"children": [],
						"id": "bgdfCdChBhaFsBO22KYaLEAwycOFfHhs",
						"nodeType": "luaCommand",
						"parameters": [ {
							"name": "var",
							"value": "Task"
						}, {
							"name": "value",
							"value": "nota_DaL_myThirdProject.TaskUpdate(Task,TaskReportFourthGroup)"
						}, {
							"name": "scriptName",
							"value": "store"
						} ],
						"scriptName": "store"
					}, {
						"children": [],
						"id": "S8HihsJvZF2HVFAQdBDdeZmEO5gFcaKs",
						"nodeType": "luaCommand",
						"parameters": [ {
							"name": "var",
							"value": "TaskReportFourthGroup"
						}, {
							"name": "value",
							"value": "nil"
						}, {
							"name": "scriptName",
							"value": "store"
						} ],
						"scriptName": "store"
					} ],
					"id": "ixMEXr9dThTZWUmUZWR2p9d1kmAR1IsU",
					"nodeType": "sequence",
					"parameters": []
				}, {
					"children": [],
					"id": "le9gXvqbci9SdHW6tXMN68BHtNYioquY",
					"nodeType": "success",
					"parameters": []
				} ],
				"id": "3BxT9rKHt8pz5VO2TxWX1EmLIJvRR32p",
				"nodeType": "luaCondition",
				"parameters": [ {
					"name": "expression",
					"value": "TaskReportFourthGroup ~= nil"
				}, {
					"name": "repeat",
					"value": "false"
				} ]
			}, {
				"children": [],
				"id": "UnCTYV7bfiIkHXubbKeZqDeSGbYc0ISY",
				"nodeType": "wait",
				"parameters": [ {
					"name": "time",
					"value": 3
				} ]
			}, {
				"children": [ {
					"children": [ {
						"children": [],
						"id": "j23pBfiVj2cVaIcXN45g63CIyzEZMaR8",
						"nodeType": "luaCommand",
						"parameters": [ {
							"name": "var",
							"value": "Task"
						}, {
							"name": "value",
							"value": "nota_DaL_myThirdProject.TaskCreation(UnitsToBeRescued,4)"
						}, {
							"name": "scriptName",
							"value": "store"
						} ],
						"scriptName": "store"
					}, {
						"children": [],
						"id": "BWBI1XFiUS9rIy4Ve1MPcBfZEXB96LB4",
						"nodeType": "luaCommand",
						"parameters": [ {
							"name": "var",
							"value": "TasksArray"
						}, {
							"name": "value",
							"value": "Task.UnitsToRescue"
						}, {
							"name": "scriptName",
							"value": "store"
						} ],
						"scriptName": "store"
					}, {
						"children": [],
						"id": "zvqQl5dl20gI6VqJ2fdYJOUJTiz14PiQ",
						"nodeType": "luaCommand",
						"parameters": [ {
							"name": "var",
							"value": "Map"
						}, {
							"name": "value",
							"value": "nota_DaL_myThirdProject.CreateGrid(100,100)"
						}, {
							"name": "scriptName",
							"value": "store"
						} ],
						"scriptName": "store"
					}, {
						"children": [],
						"id": "jagXwkovEV0PcOw24XM1dlWyLHLVLupr",
						"nodeType": "luaCommand",
						"parameters": [ {
							"name": "var",
							"value": "KnownEnemyUnits"
						}, {
							"name": "value",
							"value": "core.EnemyUnits()"
						}, {
							"name": "scriptName",
							"value": "store"
						} ],
						"scriptName": "store"
					}, {
						"children": [],
						"id": "XgwbEavyiuLroWEbbePnktdtLKu0sRzu",
						"nodeType": "luaCommand",
						"parameters": [ {
							"name": "var",
							"value": "Map"
						}, {
							"name": "value",
							"value": "nota_DaL_myThirdProject.MapDangerousZoneUpdate(KnownEnemyUnits,Map,2000)"
						}, {
							"name": "scriptName",
							"value": "store"
						} ],
						"scriptName": "store"
					} ],
					"id": "ecGEiFrKCTZQM3FREWssmEWrPL7q7Gis",
					"nodeType": "sequence",
					"parameters": []
				}, {
					"children": [ {
						"children": [],
						"id": "g5ZROQ4egUh2phkNgOlx7NkSCocHN1l1",
						"nodeType": "luaCommand",
						"parameters": [ {
							"name": "var",
							"value": "Task"
						}, {
							"name": "value",
							"value": "nota_DaL_myThirdProject.TaskGlobalUpdate(Task)"
						}, {
							"name": "scriptName",
							"value": "store"
						} ],
						"scriptName": "store"
					}, {
						"children": [],
						"id": "1amX5hlANiWe6KdwjA3EG44riVPdwhtF",
						"nodeType": "luaCommand",
						"parameters": [ {
							"name": "var",
							"value": "TasksArray"
						}, {
							"name": "value",
							"value": "Task.UnitsToRescue"
						}, {
							"name": "scriptName",
							"value": "store"
						} ],
						"scriptName": "store"
					} ],
					"id": "hfZdChEgvgHjaN8AN1wG7RCuGr2zUR9k",
					"nodeType": "sequence",
					"parameters": []
				} ],
				"id": "Iq5h1x6EfnPMO3ZQXe74Dkxd29adX1DO",
				"nodeType": "luaCondition",
				"parameters": [ {
					"name": "expression",
					"value": "FirstTime ~= false"
				}, {
					"name": "repeat",
					"value": "false"
				} ]
			}, {
				"children": [ {
					"children": [],
					"id": "C85vriBinR3Ty8GyBszAIpUW1pwk4PBI",
					"nodeType": "reference",
					"parameters": [ {
						"name": "behaviourName",
						"value": "nota_DaL_myThirdProject.SendOnMission"
					} ],
					"referenceInputs": [ {
						"name": "ArrayTask",
						"value": "TasksArray"
					}, {
						"name": "ArrayGroups",
						"value": "groupArray"
					}, {
						"name": "Map",
						"value": "Map"
					} ],
					"referenceOutputs": [ {
						"name": "TaskReportFirstGroup",
						"value": "TaskReportFirstGroup"
					}, {
						"name": "TaskReportSecondGroup",
						"value": "TaskReportSecondGroup"
					}, {
						"name": "TaskReportThirdGroup",
						"value": "TaskReportThirdGroup"
					}, {
						"name": "TaskReportFourthGroup",
						"value": "TaskReportFourthGroup"
					}, {
						"name": "FirstGroupDead",
						"value": "FirstGroupDead"
					}, {
						"name": "SecondGroupDead",
						"value": "SecondGroupDead"
					}, {
						"name": "ThirdGroupDead",
						"value": "ThirdGroupDead"
					}, {
						"name": "FourthGroupDead",
						"value": "FourthGroupDead"
					} ]
				}, {
					"children": [],
					"id": "2gDHxK64GQ3OvQ8b57BvNcCS9NSRMjAn",
					"nodeType": "success",
					"parameters": []
				}, {
					"children": [],
					"id": "EN94DT6cYoIWehzsNrl2ak7SahiLv0qD",
					"nodeType": "luaCommand",
					"parameters": [ {
						"name": "var",
						"value": "Task"
					}, {
						"name": "value",
						"value": "nota_DaL_myThirdProject.TaskReformulation(Task,UnitsToBeRescued)"
					}, {
						"name": "scriptName",
						"value": "store"
					} ],
					"scriptName": "store"
				} ],
				"id": "z6gHr36r01iVM4L6UgCvTmsfdWButpSc",
				"nodeType": "condition",
				"parameters": [ {
					"name": "repeat",
					"value": "false"
				} ]
			} ],
			"id": "5RZzuMrkX108ce4i6sN1UqrNDzfrwNBt",
			"nodeType": "sequence",
			"parameters": []
		} ],
		"id": "CY8PXiLnwptv33FHr7Gzy6Zd316MUP7O",
		"nodeType": "sequence",
		"parameters": []
	}
}